ISD/guiao6/ex1/simulation/qsim/DecoderDemo.msim.vcd
$comment
	File created using the following command:
		vcd file DecoderDemo.msim.vcd -direction
$end
$date
	Sun Nov 29 20:42:29 2020
$end
$version
	ModelSim Version 10.5b
$end
$timescale
	1ps
$end

$scope module EncoderDemo_vlg_vec_tst $end
$var reg 1 ! EOL $end
$var reg 1 " X0 $end
$var reg 1 # X1 $end
$var reg 1 $ X2 $end
$var reg 1 % X3 $end
$var reg 1 & X4 $end
$var reg 1 ' X5 $end
$var reg 1 ( X6 $end
$var reg 1 ) X7 $end
$var wire 1 * OS $end
$var wire 1 + Y0 $end
$var wire 1 , Y1 $end
$var wire 1 - Y2 $end

$scope module i1 $end
$var wire 1 . gnd $end
$var wire 1 / vcc $end
$var wire 1 0 unknown $end
$var tri1 1 1 devclrn $end
$var tri1 1 2 devpor $end
$var tri1 1 3 devoe $end
$var wire 1 4 OS~output_o $end
$var wire 1 5 Y0~output_o $end
$var wire 1 6 Y1~output_o $end
$var wire 1 7 Y2~output_o $end
$var wire 1 8 X6~input_o $end
$var wire 1 9 X7~input_o $end
$var wire 1 : X4~input_o $end
$var wire 1 ; X5~input_o $end
$var wire 1 < inst|inst10~0_combout $end
$var wire 1 = X2~input_o $end
$var wire 1 > X3~input_o $end
$var wire 1 ? X0~input_o $end
$var wire 1 @ X1~input_o $end
$var wire 1 A inst|inst10~1_combout $end
$var wire 1 B inst|inst10~combout $end
$var wire 1 C inst|inst15~0_combout $end
$var wire 1 D inst|inst15~1_combout $end
$var wire 1 E EOL~input_o $end
$var wire 1 F inst|inst15~2_combout $end
$var wire 1 G inst|inst18~0_combout $end
$var wire 1 H inst|inst18~1_combout $end
$var wire 1 I inst|inst20~0_combout $end
$upscope $end
$upscope $end
$enddefinitions $end
#0
$dumpvars
0!
0"
0#
0$
0%
0&
0'
0(
0)
1*
0+
0,
0-
0.
1/
x0
11
12
13
14
05
06
07
08
09
0:
0;
1<
0=
0>
0?
0@
1A
1B
0C
0D
0E
0F
0G
0H
0I
$end
#20000
1#
1@
1C
0A
1F
0B
04
15
1+
0*
#160000
0#
0@
0C
1A
0F
1B
14
05
0+
1*
#280000
1%
1>
1G
1D
0A
1H
1F
0B
04
15
16
1,
1+
0*
#520000
0%
0>
0G
0D
1A
0H
0F
1B
14
05
06
0,
0+
1*
#600000
1'
1;
1D
0<
1F
1I
0B
04
17
15
1+
1-
0*
#720000
0'
0;
0D
1<
0F
0I
1B
14
07
05
0+
0-
1*
#800000
1)
19
0<
1H
1F
15
16
1,
1+
1I
0B
04
17
1-
0*
#920000
0)
09
1<
0H
0F
05
06
0,
0+
0I
1B
14
07
0-
1*
