ISD/guiao7/simulation/qsim/MuxDemo.msim.vcd
$comment
	File created using the following command:
		vcd file MuxDemo.msim.vcd -direction
$end
$date
	Wed Dec 02 16:28:47 2020
$end
$version
	ModelSim Version 10.5b
$end
$timescale
	1ps
$end

$scope module MuxDemo3_vlg_vec_tst $end
$var reg 1 ! A $end
$var reg 1 " B $end
$var reg 1 # C $end
$var reg 1 $ D $end
$var wire 1 % F $end

$scope module i1 $end
$var wire 1 & gnd $end
$var wire 1 ' vcc $end
$var wire 1 ( unknown $end
$var tri1 1 ) devclrn $end
$var tri1 1 * devpor $end
$var tri1 1 + devoe $end
$var wire 1 , F~output_o $end
$var wire 1 - A~input_o $end
$var wire 1 . B~input_o $end
$var wire 1 / D~input_o $end
$var wire 1 0 C~input_o $end
$var wire 1 1 inst|inst28|inst2~0_combout $end
$upscope $end
$upscope $end
$enddefinitions $end
#0
$dumpvars
0!
0"
0#
0$
0%
0&
1'
x(
1)
1*
1+
0,
0-
0.
0/
00
01
$end
#80000
1"
1#
1.
10
11
1,
1%
#300000
1!
1-
#320000
0"
0#
0.
00
#520000
1$
1"
1#
1/
1.
10
#540000
0!
0-
01
0,
0%
#740000
0"
0#
0.
00
11
1,
1%
#780000
1#
10
#940000
0$
0#
0/
00
01
0,
0%
